{
  	"author": "zhao xiaoyun",
	"ua": "",
	"homeUrl": "https://ik4.cc",
	"dcVipFlag": "true",
  	"pCfgJs": "https://ik4.cc/static/js/playerconfig.js",
  	"pCfgJsR": "[\\W|\\S|.]*?MacPlayerConfig.player_list[\\W|\\S|.]*?=([\\W|\\S|.]*?),MacPlayerConfig.downer_list",
  	"dcShow2Vip": {},
  	"dcPlayUrl": "true",
	"cateNode": "//ul[contains(@class,'myui-header__menu nav-menu')]/li/a[contains(@href, 'vodtype')]",
	"cateName": "/text()",
	"cateId": "/@href",
	"cateIdR": "/vodtype/(\\w+).html",
	"cateManual": {},
	"homeVodNode": "//div[contains(@class, 'padding-0')]//ul[contains(@class,'myui-vodlist')]/li//a[contains(@class,'myui-vodlist__thumb')]",
	"homeVodName": "/@title",
	"homeVodId": "/@href",
	"homeVodIdR": "/voddetail/(\\w+).html",
	"homeVodImg": "/@data-original",
	"homeVodImgR": "\\S+(http\\S+)",
	"homeVodMark": "/span[contains(@class,'pic-text text-right')]/text()",
	"cateUrl": "https://ik4.cc/vodtype/{cateId}-{catePg}.html",
	"cateVodNode": "//ul[contains(@class,'myui-vodlist')]//li//a[contains(@class,'myui-vodlist__thumb')]",
	"cateVodName": "/@title",
	"cateVodId": "/@href",
	"cateVodIdR": "/voddetail/(\\w+).html",
	"cateVodImg": "/@data-original",
	"cateVodImgR": "\\S+(http\\S+)",
	"cateVodMark": "/span[contains(@class,'pic-text text-right')]/text()",
	"dtUrl": "https://ik4.cc/voddetail/{vid}.html",
	"dtNode": "//body",
	"dtName": "//div[@class='myui-content__thumb']/a[contains(@class,'myui-vodlist__thumb')]/@title",
	"dtNameR": "",
	"dtImg": "//div[@class='myui-content__thumb']/a[contains(@class,'myui-vodlist__thumb')]/img/@data-original",
	"dtImgR": "\\S+(http\\S+)",
	"dtCate": "//div[@class='myui-content__detail']//span[contains(@class,'text-muted') and contains(text(), '分类')]/following-sibling::*/text()",
	"dtCateR": "",
	"dtArea": "//div[@class='myui-content__detail']//span[contains(@class,'text-muted') and contains(text(), '地区')]/following-sibling::*/text()",
	"dtAreaR": "",
	"dtYear": "//span[contains(@class,'year')]/text()",
	"dtYearR": "",
	"dtMark": "//div[@class='myui-content__detail']//span[contains(@class,'text-muted') and contains(text(), '更新')]/following-sibling::*/text()",
	"dtMarkR": "",
	"dtActor": "//div[@class='myui-content__detail']//span[contains(@class,'text-muted') and contains(text(), '主演')]/following-sibling::*/text()",
	"dtActorR": "",
	"dtDirector": "//div[@class='myui-content__detail']//span[contains(@class,'text-muted') and contains(text(), '导演')]/following-sibling::*/text()",
	"dtDirectorR": "",
  "dtDesc": "//span[contains(@class,'sketch content')]/text()",
	"dtDescR": "",
	"dtFromNode": "//a[@data-toggle='tab' and contains(@href, 'playlist')]",
	"dtFromName": "/text()",
	"dtFromNameR": "",
	"dtUrlNode": "//div[contains(@class,'tab-content')]/div[contains(@id, 'playlist')]",
	"dtUrlSubNode": "//li/a",
	"dtUrlId": "@href",
	"dtUrlIdR": "/vodplay/(\\S+).html",
	"dtUrlName": "/text()",
	"dtUrlNameR": "",
	"playUrl": "https://ik4.cc/vodplay/{playUrl}.html",
	"playUa": "",
	"searchUrl": "https://ik4.cc/index.php/ajax/suggest?mid=1&wd={wd}&limit=10",
	"scVodNode": "json:list",
	"scVodName": "name",
	"scVodId": "id",
	"scVodIdR": "",
	"scVodImg": "pic",
	"scVodMark": ""
}